{
    "dt":360,
    "cellFunctionTemplate": [
        {"code": "void divide() {\n\tCell* daughter = this->createCell(this->getType());\n\tthis->init();\n}"}
    ],
    "scenarioFunctionTemplate": [
        {"code": "void initPop(int n, Type t) {\n\tCell *newCell;\n\tfor(int i=0;i<n;i++) {\n\t\tnewCell = this->createCell(t);\n\t}\n}"}
    ],
    "defaultTypes": ["int","double","string","bool","Protocol"]
}